Capstone Code with Notes
…
missing.values <- haute_clean %>%
  gather(key = "key", value = "val") %>%
  mutate(is.missing = is.na(val)) %>%
  group_by(key, is.missing) %>%
  summarise(num.missing = n()) %>%
  filter(is.missing==T) %>%
  select(-is.missing) %>%
  arrange(desc(num.missing)) 

## Warning: attributes are not identical across measure variables;
## they will be dropped

missing.values

## # A tibble: 97 x 2
## # Groups:   key [97]
##    key                         num.missing
##    <chr>                             <int>
##  1 Nacelle_angle_corrected_max      217588
##  2 Nacelle_angle_corrected_min      217588
##  3 Nacelle_angle_corrected_std      217588
##  4 Nacelle_angle_corrected_avg      183657
##  5 Vane_position_avg                140456
##  6 Vane_position_max                140456
##  7 Vane_position_min                140456
##  8 Vane_position_std                140456
##  9 Vane_position1_avg                79081
## 10 Vane_position1_max                79081
## #  with 87 more rows
…
missing.values <- smote_haute %>%
  gather(key = "key", value = "val") %>%
  mutate(is.missing = is.na(val)) %>%
  group_by(key, is.missing) %>%
  summarise(num.missing = n()) %>%
  filter(is.missing==T) %>%
  select(-is.missing) %>%
  arrange(desc(num.missing)) 

## Warning: attributes are not identical across measure variables;
## they will be dropped

missing.values

## # A tibble: 81 x 2
## # Groups:   key [81]
##    key                 num.missing
##    <chr>                     <int>
##  1 Torque_avg                 1500
##  2 Torque_max                 1500
##  3 Torque_min                 1500
##  4 Torque_std                 1500
##  5 Rotor_speed_avg            1115
##  6 Rotor_speed_max            1115
##  7 Rotor_speed_min            1115
##  8 Rotor_speed_std            1115
##  9 Generator_speed_avg         618
## 10 Generator_speed_max         618
## #  with 71 more rows
…
