…
```
## Warning: attributes are not identical across measure variables;
## they will be dropped
```

```r
missing.values
```

```
## # A tibble: 32 x 2
## # Groups:   key [32]
##    key                                   num.missing
##    <chr>                                       <int>
##  1 Active_poweras_avg                         217588
##  2 Absolute_wind_direction_corrected_avg      183657
##  3 Nacelle_angle_corrected_avg                183657
##  4 Vane_position_avg                          140456
##  5 Vane_position1_avg                          79081
##  6 Vane_position2_avg                          79081
##  7 Torque_avg                                   5290
##  8 Reactive_power_avg                           5108
##  9 Rotor_speed_avg                              4576
## 10 Generator_speed_avg                          3027
## # … with 22 more rows
```
…
